…
Currently dep_time and sched_dep_time are convenient to look at, but
hard to compute with because they’re not really continuous numbers.
Convert them to a more convenient representation of number of minutes
since midnight.

``` r
dep_min_since_midnight = ((flights$dep_time %/% 100) * 60) + (flights$dep_time %% 100)

sched_dep_min_since_midnight = ((flights$sched_dep_time %/% 100) * 60) + (flights$sched_dep_time %% 100)

flights %>% transmute(dep_min_since_midnight = dep_min_since_midnight, sched_dep_min_since_midnight = sched_dep_min_since_midnight)
```

    ## # A tibble: 336,776 x 2
    ##    dep_min_since_midnight sched_dep_min_since_midnight
    ##                     <dbl>                        <dbl>
    ##  1                    317                          315
    ##  2                    333                          329
    ##  3                    342                          340
    ##  4                    344                          345
    ##  5                    354                          360
    ##  6                    354                          358
    ##  7                    355                          360
    ##  8                    357                          360
    ##  9                    357                          360
    ## 10                    358                          360
    ## # ... with 336,766 more rows
…
